,Date,Lat,Lon
0,2014-04-25,59.174518585200005,156.6849822998
1,2014-04-26,59.0105476379,156.5174102783
2,2014-04-28,58.8319320679,156.3090515137
3,2014-04-28,58.7886199951,156.2406463623
4,2014-04-28,58.7783851624,156.2268218994
5,2014-04-29,58.8020744324,156.2064361572
6,2014-05-05,58.1551055908,153.4193572998
7,2014-05-11,57.620166778599994,153.21951293950002
8,2014-05-12,57.5766983032,152.9647064209
9,2014-05-12,57.5190391541,152.96505737299998
10,2014-05-13,57.9580078125,153.4437408447
11,2014-05-13,58.1318054199,153.4090423584
12,2014-05-14,57.3598403931,153.14488220209998
13,2014-05-14,57.331253051800005,153.1453857422
14,2014-05-14,57.2592468262,153.4416503906
15,2014-05-18,55.3217010498,146.7126159668
16,2014-10-09,54.5865936279,154.68394470209998
17,2014-10-11,54.0723686218,155.15492248540002
18,2014-10-11,54.059932708699996,155.12760925290002
19,2014-04-25,59.174518585200005,156.6849822998
20,2014-04-26,59.0105476379,156.5174102783
21,2014-04-28,58.8319320679,156.3090515137
22,2014-04-28,58.7886199951,156.2406463623
23,2014-04-28,58.7783851624,156.2268218994
24,2014-04-29,58.8020744324,156.2064361572
25,2014-05-05,58.1551055908,153.4193572998
26,2014-05-11,57.620166778599994,153.21951293950002
27,2014-05-12,57.5766983032,152.9647064209
28,2014-05-12,57.5190391541,152.96505737299998
29,2014-05-13,57.9580078125,153.4437408447
30,2014-05-13,58.1318054199,153.4090423584
31,2014-05-14,57.3598403931,153.14488220209998
32,2014-05-14,57.331253051800005,153.1453857422
33,2014-05-14,57.2592468262,153.4416503906
34,2014-05-18,55.3217010498,146.7126159668
35,2014-10-09,54.5865936279,154.68394470209998
36,2014-10-11,54.0723686218,155.15492248540002
37,2014-10-11,54.059932708699996,155.12760925290002
